{
  "type": "service_account",
  "project_id": "revisaoonlinenotificacao",
  "private_key_id": "d297c70d5dc6d13f8277743a535fb6b1ccf9dd0e",
  "private_key": "-----BEGIN PRIVATE KEY-----\nMIIEvAIBADANBgkqhkiG9w0BAQEFAASCBKYwggSiAgEAAoIBAQCgqi7hHt/t3ier\nyb/7r0Cd5pdw421p834YxadEZDMUpffHFNpEHnz8c9i60VhnKIL5kcvsAK6Yd6vN\n8yls8NyH1A/NMNU9iBITSV1SXHrDT9JQRZFKmOXHp8jwJ8naAl5idbbqb6CQC/zY\nW5X3f1+u9IIqjNJsM8p63Tq4Dyll06OcvL0k2c88HhgMbI0wW+mzt6T4jfHbJal8\nfbDpcFNWKsBlBEW2aXCWW/APo1o3rTNH0uSKqq6tKjp47naTspdBdoCY6I6QR73g\nDtDa2JtkZGELXNXLcQNloiwfRzNutXmjTM/J8nMP96CxIyE/iQlOtzfGZ2Qo/TEw\nulG9gE55AgMBAAECggEAD22QL1903uVil1k6BYvkb1U9jSJVtyMh5HSUdZmOmyi9\n1KDwvbJUy7Q/J19jdxJ5k0gYFitRmMQDHDWBsJunfaaUNt6911kJ7U6x9q75Peic\nGEe55jks9YFr5v3XIQdxs1A89qGuAC8aglc3HStez5DcsAPSUAAgLTCxywtvrP6g\n4A7qVCbNsnXgCH7Mfx3jwuVwh7IhoZ/QTcRIjvn3WlqQYujqgo6mW0Kon7jwPElz\n4lHQHb0tvtrtNxsNjRdJSczHs+//mZSqeH5a+KY1h0T7r5SpSEurzFby6J7BD97/\n3u//Wj5344Gz1oczscFdzpGVXQoOZwgFV9mUK5xJYQKBgQDdzSxV5RnDTs6vy/Sq\nKU5LAKBx4Rwq2d3+ouIN5nSz5JPVL9yzVPx/SzJYFOItrneeQsSQ6lo9CMEQXJ8f\nltaaZwW1gu6spwjqoC+j2EaOEHq2ZIh9RgHjkr+VEhOeGM9LYyLlD/OpNzLsEN2b\nA3UK8zGR0PUt+fjAdEN0J1tf8QKBgQC5b9snmDh2C+XBV9B+v5C7UMCZGPvRFTbz\nkduR9PAJURxyRYFVCdkxClxqfuA2oBAe09Ozjd/37kalWt9qq5cdHjVNBkQZT+Br\nIFpfQgq/hVYwQfP3/i4QveUnIcxs5/u6/ZvgSF39uRixUlxGYZ8z/A3XuVOae63Z\n4p0fdSffCQKBgAhQvd3Ghg29caBDnDuY6teDAYDjeKPeoST/xEvTHQL1idlPPw32\nHLVFA3Er70LZLKDhTe9E6fcp0dskLc8IX6lQPXWNoBcW+A2bzc1tuU9wLLmT0U4p\nBr8abFZRZCzkLzlbUR6XV4I7kIwrIbPDEGtFrNETrW141quYcEL1isZxAoGAMb+O\nferaiuDaPKqAZuChxX7+jJQlSox0d5fT3i5mDznRdd6rudKwj/WFoZR0NnNun7aY\nfv067trf3RCqC4YJPmiSSB28O0YwoMzHMfMXyxXMb5niB9ALL7aiOYNZwoXiBOJw\n5RTFEoKL21aLJt6dxWaDmDJB+ZngpCmlmYDmt3ECgYBI0DxbGmod28NM4RVqTBAc\ndotxy2sZBaHGyI1Qq6WcO3lnpNX55nLtbnkEMNXofM3YZO6L5OC+VstuwKCHnAdi\nVtVBnGiuSjevfkA7SldGNA/tsbbJSKJuvziLDaFSzDH6pW0Rw5CAsgKC9Rdtx4ms\nNq0YPlcNEG2/zqNcPGmRRg==\n-----END PRIVATE KEY-----\n",
  "client_email": "firebase-adminsdk-fxomq@revisaoonlinenotificacao.iam.gserviceaccount.com",
  "client_id": "116013321217274730970",
  "auth_uri": "https://accounts.google.com/o/oauth2/auth",
  "token_uri": "https://oauth2.googleapis.com/token",
  "auth_provider_x509_cert_url": "https://www.googleapis.com/oauth2/v1/certs",
  "client_x509_cert_url": "https://www.googleapis.com/robot/v1/metadata/x509/firebase-adminsdk-fxomq%40revisaoonlinenotificacao.iam.gserviceaccount.com"
}
